<svg xmlns="http://www.w3.org/2000/svg" xmlns:xlink="http://www.w3.org/1999/xlink" id="Layer_1" data-name="Layer 1" viewBox="0 0 1700.79 1700.79">
  <defs>
    <clipPath id="clip-path">
      <rect width="3091.9" height="1971.88" x="-338.95" y="238.49" style="fill:none" transform="translate(-242.08 299.1) rotate(-12.85)"/>
    </clipPath>
    <clipPath id="clip-path-2">
      <path d="M867.18,620.4c-143.39,40-337.14,120.06-493.59,204a42.21,42.21,0,0,1-9.13,3.6,41.48,41.48,0,0,1-47.11-20.06A41,41,0,0,1,334,752.4l.34-.18C495.77,665.61,696.26,582.85,845.1,541.33l.53-.14c22-5.82,44.51,6.85,50.56,28.51,6.1,21.83-6.89,44.53-29,50.7M807.42,861.06c-107.62,41.32-224.35,94.6-320.24,146.19a42.3,42.3,0,0,1-9.19,3.64,41.47,41.47,0,0,1-47.07-20,41,41,0,0,1,16.58-55.56l.33-.18c100.35-54,217.52-107.49,329.94-150.66,21.43-8.25,45.45,2.25,53.64,23.39s-2.56,45-24,53.19m867.27-3.35L1414.55,655.25l-94.77-357.4a40.92,40.92,0,0,0-28-28.69,42,42,0,0,0-39.56,8.62c-1,.83-69.5,60.27-153.55,113,121.19,164.73,257.58,459.5,245.33,550a61.26,61.26,0,0,0-8.42-21.19l-22.14-42c-9-18.79-20.29-40.08-33.28-63.08v-.1h0c-103.59-183.67-313.8-476.23-313.8-476.23a62,62,0,0,0-51-28.61c-141.77-3.28-382.08,92.16-478.82,133.36C254.35,520.47,92,609.62,22.77,670A40.87,40.87,0,0,0,15,722.8l467.58,733.39.07.11.3.48c.07.11.17.2.24.3a39.78,39.78,0,0,0,3.53,4.65c.18.21.34.42.52.61a40.43,40.43,0,0,0,4.09,3.87c.42.35.85.68,1.28,1s.77.63,1.18.93c.83.59,1.69,1.08,2.55,1.59.41.25.79.53,1.21.76a40.86,40.86,0,0,0,5.19,2.43c.38.15.77.27,1.16.4a37.47,37.47,0,0,0,4.65,1.35c.41.1.82.21,1.23.29a41.72,41.72,0,0,0,5.78.74h.68a41.69,41.69,0,0,0,5-.12c.59,0,1.16-.11,1.74-.18a41.2,41.2,0,0,0,5.17-.94.94.94,0,0,0,.46-.08l.24-.09a45.27,45.27,0,0,0,5.18-1.79l.71-.29a42.24,42.24,0,0,0,5.07-2.67c.13-.08.26-.12.38-.2l.39-.28c.85-.54,1.67-1.12,2.47-1.73.28-.2.56-.39.83-.6.82-.66,1.63-1.36,2.42-2.08.19-.18.41-.35.6-.53.9-.86,1.76-1.77,2.59-2.72.48-.56.92-1.15,1.37-1.73.3-.37.61-.73.9-1.12l.26-.36.19-.27c6.38-8.86,64-90.44,110.73-208.54-39.18-22.58-89.35-21.37-89.35-21.37l.16-.11a41,41,0,0,0,7.87-3.35c204.79-114.7,505.54-234.82,664.17-249.8l-39.12,66.37a61.19,61.19,0,0,0,49,92.26q36.48,2.32,80.85-9.44c56.13-14.88,121.5-46.64,195.38-95a1450.49,1450.49,0,0,0,144.38-108.23,41.15,41.15,0,0,0,14.14-32,40.61,40.61,0,0,0-15.71-31.09" style="fill:none;clip-path:url(#clip-path)"/>
    </clipPath>
  </defs>
  <title>
    GB Flag v2
  </title>
  <g style="clip-path:url(#clip-path-2)">
    <rect width="2298.86" height="1592.78" x="-286.86" y="48.32" style="fill:#4756ca" transform="translate(-187.68 249.28) rotate(-14.85)"/>
  </g>
</svg>
