<svg xmlns="http://www.w3.org/2000/svg" xmlns:xlink="http://www.w3.org/1999/xlink" viewBox="0 0 87.56 63.36">
  <defs>
    <style>
      .cls-1{fill:url(#linear-gradient);}.cls-2{fill:#3c1e65;}.cls-3{fill:#fff;}.cls-4{fill:#4756ca;}
    </style>
    <linearGradient id="linear-gradient" x1="-2580.34" x2="-2579.95" y1="622.75" y2="622.68" gradientTransform="matrix(81.32, 8.45, 8.45, 110.6, 204629.96, -47042.89)" gradientUnits="userSpaceOnUse">
      <stop offset="0" stop-color="#5d569a"/>
      <stop offset="1" stop-color="#fff"/>
    </linearGradient>
  </defs>
  <title>
    GB Logo White100
  </title>
  <g id="Layer_2" data-name="Layer 2">
    <g id="Layer_1-2" data-name="Layer 1">
      <g id="logo_mark" data-name="logo/mark">
        <g id="Multi-Color-Alternate">
          <path id="Back" d="M69.19,44.9a11.12,11.12,0,0,1-4.29.46,3,3,0,0,1-2.48-1.54,3.12,3.12,0,0,1-.06-3.3L65,36,50,12.53a2.4,2.4,0,0,1-.23-1.87,2,2,0,0,1,1.3-1.31C57.56,6.66,64.47.53,64.47.53A2.05,2.05,0,0,1,66.56.11a2.11,2.11,0,0,1,1.51,1.52l5,18.78L86.68,31a2.28,2.28,0,0,1,.87,1.7,1.88,1.88,0,0,1-.78,1.72,56.19,56.19,0,0,1-7.43,5.72A38.45,38.45,0,0,1,69.19,44.9" class="cls-1"/>
          <path id="Mid" d="M62.45,43.94a3.47,3.47,0,0,0,2.48,1.54A13.08,13.08,0,0,0,69.22,45l-.39.1c-3.12.7-2.84-1.86-2.37-2.67l2.73-4.73a3.18,3.18,0,0,0,0-3.3,3.09,3.09,0,0,0-2.61-1.5,32.23,32.23,0,0,0-7.06.92l-.13,0a2.14,2.14,0,0,0-1.05.69c-.1.17-.22.2-.32.36a1.66,1.66,0,0,0-.24,1.17l.21.77a.47.47,0,0,0,.23.35Z" class="cls-2"/>
          <path id="Front" d="M69.07,34.18a3.1,3.1,0,0,1,.06,3.29l-.48.81c1.2-1.7-2.73-1.47-2.73-1.47-6.56.24-19.49,4.95-30.19,10.3a55.93,55.93,0,0,1-7.21,15.3h0l-.12,0a.14.14,0,0,0-.1.17l-.09.16h0a.13.13,0,0,0-.1.16h0L28,63h0c-.12,0-.12,0-.22.19h0l-.26.07h0l-.25.07-.13,0c-.13,0-.13,0-.29-.06h0c-.13,0-.17-.1-.29-.06h0c-.42,0-.42,0-.55,0h0c-.17-.1-.17-.1-.3-.06h0l-.16-.1,0-.13,0-.12-.32-.19h0c0-.13-.17-.1-.2-.23h0L.33,24.06A2.11,2.11,0,0,1,.7,21.34c3.63-3.45,12-8,21.41-12.21C27.17,6.94,39.62,2,47,2.18a3.32,3.32,0,0,1,2.74,1.47L69.07,34.18Z" class="cls-3"/>
          <path id="Stem-Shadow" d="M28.11,51.08a.47.47,0,0,0-.35.23h0s4.4-1,6.52.18c.47-1.36.89-2.86,1.32-4.35-1.92,1.07-5.7,2.91-7.49,3.94" class="cls-2"/>
          <path id="Lines" d="M18.57,29.37a2.28,2.28,0,0,1-2.47-1A2,2,0,0,1,17,25.52a142,142,0,0,1,26.52-11.1h0a2.1,2.1,0,0,1,2.61,1.5,2.31,2.31,0,0,1-1.47,2.74A133.44,133.44,0,0,0,19.08,29.23ZM24.45,39A2.28,2.28,0,0,1,22,38a2,2,0,0,1,.89-2.86,138.32,138.32,0,0,1,17.05-7.87,2.11,2.11,0,0,1,2.79,1.18,2.2,2.2,0,0,1-1.18,2.79,158.32,158.32,0,0,0-16.7,7.65Z" class="cls-4"/>
          <path id="Stem-Shadow-2" d="M28.11,51.08a.47.47,0,0,0-.35.23h0s4.4-1,6.52.18c.47-1.36.89-2.86,1.32-4.35-1.92,1.07-5.7,2.91-7.49,3.94" class="cls-2" data-name="Stem-Shadow"/>
        </g>
      </g>
    </g>
  </g>
</svg>
